{
  "name": "@buckeye/bs-es",
  "namespace": "elasticsearch",
  "sources": [
    {
      "dir": "src",
      "subdirs": true
    },
    {
      "dir": "__tests__",
      "subdirs": true,
      "type": "dev"
    }
  ],
  "refmt": 3,
  "package-specs": {
    "module": "commonjs",
    "in-source": true
  },
  "suffix": ".bs.js",
  "bs-dependencies": [ "relude", "bs-decode" ],
  "bs-dev-dependencies": [ "@buckeye/bs-ava" ]
}
